﻿
{
    "urls": [
 
{ "url": "http://itvbox.cc/tvbox/云星日记/1.m3u8", "name": "云星日记家庭版" },
{"url":"https://jihulab.com/ygbh1/box/-/raw/main/月光宝盒
", "name": "月光宝盒家庭版" },
{ "url": "http://52bsj.vip:98/wuai", "name": "吾爱" }, 
{"url":"http://我不是.肥猫.love:63/接口禁止贩卖", "name": "肥猫" },
{"url":"https://agit.ai/Yoursmile7/TVBox/raw/branch/master/XC.json", "name": "南风" },
{"url":"https://download.kstore.space/download/2863/01.txt", "name": "潇洒" },
{"url":"http://刚刚.live/猫", "name": "刚刚" },
{"url":"https://raw.liucn.cc/box/m.json", "name": "老刘备" },
{"url":"https://yydsys.top/duo", "name": "多多家庭版" }, 
 
 
{"url": "http://itvbox.cc/tvbox/云星日记/ali.m3u8", "name": "云星日记  阿里" },
{"url": "http://itvbox.cc/tvbox/云星日记/bili.m3u8", "name": "云星日记  哔哩" },
{"url":"http://52bsj.vip:81/api/v3/file/get/41063/bili.json?sign=TxuApYZt6bNl9TzI7vObItW34UnATQ4RQxABAEwHst4%3D%3A0", "name": "月光宝盒  哔哩" }

    ]
}
